203 183 139 17 
183 203 139 4 
203 183 20 4 
203 22 4 20 
1 184 304 15 
304 22 15 20 
304 184 20 15 
9 130 305 306 
305 148 306 12 
12 130 306 305 
12 305 148 21 
12 148 306 15 
185 5 22 4 
185 20 4 22 
203 136 183 17 
307 136 204 19 
20 204 203 22 
203 204 307 136 
307 183 203 136 
203 183 307 20 
203 307 204 20 
176 148 15 16 
176 148 12 15 
176 148 16 21 
176 148 21 12 
305 130 9 161 
305 130 161 12 
305 161 9 14 
305 161 14 21 
305 161 21 12 
162 308 11 14 
308 134 13 11 
308 134 16 13 
162 308 13 11 
127 305 9 309 
305 309 7 21 
127 309 9 10 
127 309 10 7 
127 309 7 305 
304 310 127 1 
304 310 9 127 
304 127 7 1 
304 127 22 7 
304 127 9 22 
3 145 202 7 
202 22 7 5 
202 145 5 7 
146 120 125 1 
146 120 2 125 
146 125 7 1 
146 125 21 7 
146 125 2 21 
163 309 10 9 
309 305 9 14 
309 305 14 21 
163 309 9 14 
304 310 1 306 
304 310 306 9 
304 306 1 15 
304 306 15 22 
304 306 22 9 
309 154 10 7 
154 124 309 6 
309 124 21 6 
309 124 154 7 
309 124 7 21 
9 130 306 22 
306 15 22 12 
306 130 12 22 
308 161 176 21 
161 176 21 12 
308 176 16 21 
161 308 14 21 
9 127 310 305 
146 127 310 1 
146 127 1 7 
310 146 305 127 
7 146 305 21 
127 146 305 7 
202 121 145 3 
121 202 145 4 
202 145 4 5 
202 22 5 4 
7 124 125 21 
124 2 21 6 
125 124 2 21 
10 163 126 309 
147 163 126 8 
147 163 8 14 
126 147 309 163 
14 147 309 21 
163 147 309 14 
125 120 2 122 
125 120 122 1 
125 122 2 5 
125 122 5 7 
125 122 7 1 
17 135 136 183 
136 307 183 18 
18 135 183 136 
18 136 307 19 
18 307 183 20 
19 175 307 18 
307 20 18 15 
307 175 15 18 
204 175 307 19 
175 204 307 15 
204 307 15 20 
204 22 20 15 
10 154 309 126 
309 147 126 6 
6 154 126 309 
6 309 147 21 
6 147 126 8 
176 161 128 12 
162 161 308 14 
13 308 176 16 
176 308 162 161 
162 128 176 161 
176 128 162 13 
176 162 308 13 
147 8 11 14 
147 21 14 11 
19 204 175 12 
204 15 12 22 
175 204 15 12 
1 304 122 7 
304 5 7 22 
122 304 5 7 
1 304 184 122 
185 304 184 20 
185 304 20 22 
184 185 122 304 
304 185 122 5 
5 304 185 22 
148 305 146 21 
310 305 306 9 
1 306 148 15 
148 306 146 305 
310 146 306 305 
148 146 306 1 
146 310 306 1 
16 134 308 21 
308 14 21 11 
308 134 11 21 
145 125 2 5 
145 125 3 2 
145 125 5 7 
145 125 7 3 
311 181 10 9 
188 181 311 9 
160 181 188 9 
181 160 188 31 
181 188 311 31 
188 311 31 34 
131 159 180 32 
159 131 180 8 
131 159 28 8 
131 31 8 28 
312 126 154 10 
126 312 154 6 
312 126 8 6 
312 28 6 8 
32 159 180 30 
159 8 30 28 
180 159 8 30 
6 313 149 33 
313 23 33 26 
149 313 23 33 
311 181 312 10 
181 311 312 28 
311 181 31 28 
311 34 28 31 
181 126 312 10 
126 181 312 8 
181 312 8 28 
181 31 28 8 
33 166 314 30 
314 28 30 8 
314 166 8 30 
311 312 154 10 
312 311 154 6 
311 312 28 6 
311 34 6 28 
315 129 158 29 
156 129 165 27 
30 165 315 33 
315 165 156 129 
156 158 315 129 
315 158 156 30 
315 156 165 30 
311 154 7 10 
311 124 187 7 
311 154 124 7 
124 154 311 6 
124 311 187 6 
311 187 6 34 
315 165 167 33 
153 165 129 27 
25 129 315 29 
315 129 153 165 
153 167 315 165 
315 167 153 25 
315 153 129 25 
34 311 187 188 
127 311 187 7 
127 311 7 10 
187 127 188 311 
311 127 188 9 
9 311 127 10 
158 315 29 28 
315 314 28 30 
315 314 30 33 
158 315 28 30 
186 152 24 6 
152 313 186 26 
186 313 34 26 
186 313 152 6 
186 313 6 34 
313 6 34 28 
313 26 28 34 
25 167 151 26 
167 23 26 33 
151 167 23 26 
313 314 28 26 
313 314 6 28 
313 314 26 33 
313 314 33 6 
149 313 6 152 
313 152 23 26 
149 152 6 24 
149 152 24 23 
149 152 23 313 
155 315 29 25 
315 167 25 26 
315 167 26 33 
155 315 25 26 
7 124 187 150 
187 186 150 6 
6 124 150 187 
6 187 186 34 
6 186 150 24 
155 315 28 29 
315 314 26 28 
315 314 33 26 
155 315 26 28 
33 314 166 6 
314 8 6 28 
166 314 8 6 
316 239 129 29 
239 316 129 27 
316 239 49 27 
316 51 27 49 
317 44 27 49 
317 51 49 27 
41 179 211 247 
317 179 211 44 
317 179 44 48 
211 317 247 179 
48 317 247 51 
179 317 247 48 
316 239 29 28 
239 238 316 49 
316 238 51 49 
316 238 239 28 
316 238 28 51 
41 174 319 318 
190 174 319 27 
190 174 27 38 
319 190 318 174 
38 190 318 50 
174 190 318 38 
320 221 43 38 
221 132 320 39 
320 132 50 39 
320 132 221 38 
320 132 38 50 
36 246 169 26 
246 25 26 51 
169 246 25 26 
321 210 240 46 
210 240 46 47 
321 240 49 46 
210 321 48 46 
29 155 316 28 
316 51 28 26 
316 155 26 28 
190 153 189 38 
153 189 38 25 
190 189 50 38 
153 190 27 38 
41 174 318 220 
318 320 220 38 
38 174 220 318 
38 318 320 50 
38 320 220 43 
132 322 39 36 
171 322 132 36 
169 322 171 36 
322 169 171 25 
322 171 132 25 
171 132 25 38 
157 191 37 35 
157 191 39 37 
157 191 35 50 
157 191 50 39 
41 319 247 211 
247 317 211 27 
27 319 211 247 
27 247 317 51 
27 317 211 44 
245 182 46 238 
245 182 238 28 
245 238 46 49 
245 238 49 51 
245 238 51 28 
153 27 51 38 
153 25 38 51 
321 317 44 48 
321 317 49 44 
321 317 48 51 
321 317 51 49 
222 320 37 43 
320 191 40 37 
320 191 50 40 
222 320 40 37 
212 133 220 42 
212 133 41 220 
212 220 43 42 
212 220 45 43 
212 220 41 45 
157 168 25 35 
157 169 322 25 
157 168 169 25 
169 168 157 36 
169 157 322 36 
157 322 36 39 
47 178 210 240 
210 321 240 44 
44 178 240 210 
44 210 321 48 
44 321 240 49 
316 129 25 29 
129 153 27 316 
316 153 27 51 
316 153 25 129 
316 153 51 25 
247 174 319 41 
174 247 319 27 
247 174 38 27 
247 51 27 38 
318 220 320 45 
220 320 45 43 
318 320 50 45 
220 318 41 45 
318 211 41 177 
318 211 177 44 
318 177 41 45 
318 177 45 50 
318 177 50 44 
321 245 46 49 
321 245 48 46 
321 245 49 51 
321 245 51 48 
189 322 132 25 
189 322 39 132 
189 132 38 25 
189 132 50 38 
189 132 39 50 
189 322 25 157 
189 322 157 39 
189 157 25 35 
189 157 35 50 
189 157 50 39 
43 222 320 45 
320 50 45 40 
320 222 40 45 
246 169 171 36 
169 246 171 25 
246 171 25 38 
246 51 38 25 
222 212 42 40 
222 212 43 42 
222 212 40 45 
222 212 45 43 
29 316 155 25 
316 26 25 51 
155 316 26 25 
41 211 318 319 
211 190 319 27 
27 211 190 44 
318 190 319 211 
44 318 190 50 
211 318 190 44 
221 320 43 37 
320 191 37 39 
320 191 39 50 
221 320 37 39 
324 323 53 4 
323 121 324 3 
324 121 63 3 
324 121 323 4 
324 121 4 63 
255 196 197 58 
323 196 324 53 
3 324 255 63 
255 324 323 196 
323 197 255 196 
255 197 323 3 
255 323 324 3 
63 325 256 4 
256 60 4 56 
256 325 56 4 
326 121 145 4 
326 121 3 145 
326 145 5 4 
326 145 62 5 
326 145 3 62 
137 199 52 61 
137 327 217 52 
137 199 327 52 
327 199 137 4 
327 137 217 4 
137 217 4 60 
63 324 325 4 
325 56 4 53 
325 324 53 4 
207 192 53 4 
326 192 207 4 
327 192 326 4 
192 327 326 52 
192 326 207 52 
326 207 52 62 
145 206 2 3 
145 206 5 2 
145 206 3 62 
145 206 62 5 
207 323 4 53 
207 121 326 4 
207 323 121 4 
121 323 207 3 
121 207 326 3 
207 326 3 62 
59 205 198 200 
122 205 198 1 
122 205 1 62 
198 122 200 205 
205 122 200 5 
5 205 122 62 
200 205 4 59 
205 326 5 4 
205 326 62 5 
200 205 5 4 
206 2 3 57 
206 62 57 3 
164 325 53 56 
325 324 54 53 
325 324 63 54 
164 325 54 53 
206 120 122 2 
206 120 1 122 
206 122 5 2 
206 122 62 5 
206 122 1 62 
52 192 327 56 
192 4 56 53 
327 192 4 56 
254 194 193 55 
164 194 325 56 
54 325 254 63 
254 325 164 194 
164 193 254 194 
254 193 164 54 
254 164 325 54 
4 327 199 59 
199 61 59 52 
199 327 52 59 
53 207 323 57 
207 3 57 62 
323 207 3 57 
196 255 324 54 
255 324 54 63 
196 324 53 54 
255 196 58 54 
327 326 205 4 
326 205 62 52 
327 205 59 4 
327 205 52 59 
327 205 326 52 
52 327 217 56 
217 60 56 4 
217 327 4 56 
256 254 325 63 
194 254 201 55 
56 201 256 60 
256 201 325 254 
194 325 201 254 
256 325 201 56 
325 194 201 56 
58 195 196 197 
323 195 196 53 
323 195 53 57 
196 323 197 195 
195 323 197 3 
3 195 323 57 
276 266 70 77 
276 259 328 70 
276 266 259 70 
259 266 276 64 
259 276 328 64 
276 328 64 79 
77 276 266 74 
276 64 74 79 
266 276 64 74 
329 140 75 267 
329 140 267 74 
329 267 75 76 
329 267 76 78 
329 267 78 74 
329 140 55 75 
329 216 330 55 
329 140 216 55 
216 140 329 74 
216 329 330 74 
329 330 74 78 
260 219 68 70 
260 219 69 68 
260 219 70 77 
260 219 77 69 
194 164 331 56 
215 164 193 54 
55 331 215 71 
194 193 331 164 
215 331 193 164 
194 331 193 55 
331 215 193 55 
219 276 70 77 
276 328 68 70 
276 328 79 68 
219 276 68 70 
226 330 78 74 
330 216 226 55 
226 216 64 55 
226 216 330 74 
226 216 74 64 
55 332 330 71 
330 78 71 65 
330 332 65 71 
78 329 225 76 
329 73 76 75 
225 329 73 76 
277 193 215 55 
277 193 54 215 
277 215 71 55 
277 215 79 71 
277 215 54 79 
71 214 331 215 
331 164 215 53 
53 214 215 331 
53 331 164 56 
53 164 215 54 
333 332 277 71 
332 277 71 55 
333 277 79 71 
332 333 65 71 
79 328 333 67 
328 65 67 70 
333 328 65 67 
225 223 334 52 
223 334 52 56 
225 334 78 52 
223 225 73 52 
275 213 54 72 
213 215 71 275 
275 215 71 79 
275 215 54 213 
275 215 79 54 
64 266 209 259 
260 266 209 69 
260 266 69 77 
209 260 259 266 
266 260 259 70 
70 266 260 77 
138 275 72 67 
138 275 66 72 
138 275 67 79 
138 275 79 66 
70 261 328 68 
328 79 68 66 
328 261 66 68 
65 208 333 332 
208 277 332 55 
55 208 277 64 
333 277 332 208 
64 333 277 79 
208 333 277 64 
275 213 72 67 
213 170 275 71 
275 170 79 71 
275 170 213 67 
275 170 67 79 
328 259 65 70 
328 208 333 65 
328 259 208 65 
208 259 328 64 
208 328 333 64 
328 333 64 79 
225 334 329 78 
224 334 223 56 
73 329 224 75 
225 223 224 334 
224 329 225 334 
225 329 224 73 
225 224 223 73 
328 261 70 67 
261 138 328 66 
328 138 79 66 
328 138 261 67 
328 138 67 79 
56 331 194 334 
330 331 194 55 
330 331 55 71 
194 330 334 331 
71 330 334 78 
331 330 334 71 
329 334 330 78 
194 334 224 56 
55 224 329 75 
329 224 330 334 
194 330 224 334 
329 330 224 55 
330 194 224 55 
55 277 216 64 
277 74 64 79 
216 277 74 64 
192 227 53 334 
227 334 52 78 
192 334 53 56 
192 334 56 52 
192 334 52 227 
226 208 55 64 
226 332 330 55 
226 208 332 55 
332 208 226 65 
332 226 330 65 
226 330 65 78 
170 333 65 67 
170 333 71 65 
170 333 67 79 
170 333 79 71 
334 331 53 56 
334 214 227 53 
334 331 214 53 
214 331 334 71 
214 334 227 71 
334 227 71 78 
226 218 64 267 
226 218 267 76 
226 267 64 74 
226 267 74 78 
226 267 78 76 
283 234 335 87 
234 335 87 85 
283 335 91 87 
234 283 83 87 
242 235 88 72 
235 336 242 85 
242 336 90 85 
242 336 235 72 
242 336 72 90 
242 88 80 72 
242 90 72 80 
89 282 172 236 
142 282 172 87 
142 282 87 91 
172 142 236 282 
282 142 236 86 
86 282 142 91 
172 282 89 88 
282 337 88 87 
282 337 87 91 
172 282 88 87 
91 281 335 283 
335 234 283 66 
66 281 283 335 
66 335 234 85 
66 234 283 83 
235 337 335 87 
337 335 87 91 
235 335 85 87 
337 235 88 87 
338 243 241 90 
230 243 231 82 
65 231 338 67 
338 231 230 243 
230 241 338 243 
338 241 230 65 
338 230 231 65 
338 231 243 85 
231 243 85 82 
338 243 90 85 
231 338 67 85 
237 282 88 89 
282 337 81 88 
282 337 91 81 
237 282 81 88 
234 141 83 66 
141 232 234 84 
234 232 85 84 
234 232 141 66 
234 232 66 85 
138 336 85 67 
138 336 66 85 
138 336 67 72 
138 336 72 66 
232 66 85 82 
232 84 82 85 
71 228 213 90 
228 72 90 80 
213 228 72 90 
170 338 67 65 
338 241 65 71 
338 241 71 90 
170 338 65 71 
229 80 88 72 
229 81 72 88 
85 336 335 235 
335 337 235 72 
72 336 235 335 
72 335 337 91 
72 337 235 88 
338 170 67 213 
338 170 213 71 
338 213 67 72 
338 213 72 90 
338 213 90 71 
337 88 72 81 
337 91 81 72 
338 336 72 67 
338 336 90 72 
338 336 67 85 
338 336 85 90 
283 233 83 142 
283 233 142 86 
283 142 83 87 
283 142 87 91 
283 142 91 86 
67 138 231 85 
231 82 85 66 
231 138 66 85 
336 335 66 85 
335 281 72 66 
335 281 91 72 
336 335 72 66 
86 339 298 340 
341 339 298 109 
341 339 109 111 
298 341 340 339 
111 341 340 112 
339 341 340 111 
108 343 342 109 
343 101 109 111 
342 343 101 109 
342 343 108 105 
343 344 105 101 
343 344 101 111 
342 343 105 101 
112 341 345 101 
341 96 101 109 
345 341 96 101 
93 250 287 109 
250 96 109 100 
287 250 96 109 
112 341 346 345 
287 341 346 93 
287 341 93 109 
346 287 345 341 
341 287 345 96 
96 341 287 109 
346 340 341 112 
298 340 244 86 
93 341 298 109 
346 244 341 340 
298 341 244 340 
346 341 244 93 
341 298 244 93 
143 346 347 93 
346 347 112 94 
143 347 95 93 
143 347 94 95 
143 347 346 94 
346 143 288 93 
346 143 94 288 
346 288 97 93 
346 288 112 97 
346 288 94 112 
341 109 101 111 
341 112 111 101 
86 339 340 348 
339 349 348 107 
107 339 349 111 
340 349 348 339 
111 340 349 112 
339 340 349 111 
297 257 89 106 
257 123 105 297 
297 123 105 108 
297 123 89 257 
297 123 108 89 
86 348 142 339 
350 348 142 87 
350 348 87 107 
142 350 339 348 
107 350 339 111 
348 350 339 107 
349 107 111 101 
349 112 101 111 
236 339 343 86 
339 343 111 89 
236 343 108 86 
236 343 89 108 
236 343 339 89 
265 351 92 97 
351 286 95 265 
265 286 95 107 
265 286 92 351 
265 286 107 92 
105 344 262 101 
344 107 101 111 
262 344 107 101 
173 352 101 103 
352 342 105 101 
352 342 108 105 
173 352 105 101 
87 172 350 88 
350 111 88 89 
350 172 89 88 
108 297 293 352 
144 297 293 102 
144 297 102 106 
293 144 352 297 
297 144 352 103 
103 297 144 106 
102 253 294 290 
294 353 290 98 
98 253 290 294 
98 294 353 110 
98 353 290 104 
88 235 263 87 
263 107 87 85 
263 235 85 87 
349 265 95 107 
349 351 347 95 
349 265 351 95 
351 265 349 97 
351 349 347 97 
349 347 97 112 
105 344 258 262 
263 344 258 88 
263 344 88 111 
258 263 262 344 
344 263 262 107 
107 344 263 111 
102 293 290 294 
353 293 290 104 
353 293 104 108 
290 353 294 293 
108 353 294 110 
293 353 294 108 
298 339 86 343 
339 343 109 111 
298 343 86 108 
298 343 108 109 
298 343 109 339 
297 257 106 103 
352 257 297 103 
173 257 352 103 
257 173 352 105 
257 352 297 105 
352 297 105 108 
349 264 265 107 
248 264 345 96 
97 345 349 112 
349 345 265 264 
248 265 345 264 
349 265 345 97 
265 248 345 97 
347 351 94 95 
351 288 97 347 
347 288 97 112 
347 288 94 351 
347 288 112 94 
349 340 347 112 
285 340 348 86 
95 348 349 107 
349 348 347 340 
285 347 348 340 
349 347 348 95 
347 285 348 95 
353 354 296 108 
354 296 108 109 
353 296 110 108 
354 353 104 108 
284 95 107 87 
284 85 87 107 
354 104 100 96 
354 109 96 100 
96 248 287 345 
346 248 287 93 
346 248 93 97 
287 346 345 248 
97 346 345 112 
248 346 345 97 
345 264 349 101 
264 349 101 107 
345 349 112 101 
264 345 96 101 
347 340 346 112 
244 340 285 86 
93 285 347 95 
347 285 244 340 
244 346 347 340 
347 346 244 93 
347 244 285 93 
348 142 285 86 
142 348 285 87 
348 285 87 95 
348 107 95 87 
95 286 284 107 
286 85 107 92 
284 286 85 107 
292 352 103 101 
352 342 101 104 
352 342 104 108 
292 352 101 104 
110 295 296 353 
296 354 353 100 
100 295 353 296 
100 296 354 109 
100 354 353 104 
286 351 95 94 
351 288 94 92 
351 288 92 97 
286 351 94 92 
263 350 87 107 
263 350 88 87 
263 350 107 111 
263 350 111 88 
344 258 123 105 
258 344 123 88 
344 123 88 89 
344 111 89 88 
350 142 172 87 
236 142 339 86 
89 339 350 111 
350 339 172 142 
236 172 339 142 
350 172 339 89 
172 236 339 89 
123 344 105 343 
344 343 89 111 
123 343 105 108 
123 343 108 89 
123 343 89 344 
291 289 249 99 
289 291 249 96 
291 289 100 96 
291 104 96 100 
342 354 104 108 
342 354 101 104 
342 354 108 109 
342 354 109 101 
352 144 292 103 
290 144 293 102 
104 293 352 108 
352 293 290 144 
290 292 352 144 
352 292 290 104 
352 290 293 104 
354 104 96 101 
354 109 101 96 
99 291 289 98 
291 100 98 104 
289 291 100 98 
110 295 353 98 
353 104 98 100 
353 295 100 98 
300 268 102 113 
300 355 144 102 
300 268 355 102 
355 268 300 37 
355 300 144 37 
300 144 37 103 
300 356 103 37 
268 356 300 37 
278 356 268 37 
356 278 268 113 
356 268 300 113 
356 278 113 118 
356 173 103 257 
356 173 257 105 
356 257 103 106 
356 257 106 118 
356 257 118 105 
357 251 355 37 
274 251 303 114 
102 303 357 119 
357 303 355 251 
274 355 303 251 
357 355 303 102 
355 274 303 102 
36 271 168 119 
271 35 119 117 
168 271 35 119 
358 157 36 39 
157 168 35 358 
358 168 35 119 
358 168 36 157 
358 168 119 36 
157 358 37 39 
358 357 35 37 
358 357 119 35 
157 358 35 37 
38 171 132 301 
132 358 301 36 
36 171 301 132 
36 132 358 39 
36 358 301 119 
118 356 278 106 
356 37 106 103 
278 356 37 106 
274 355 299 102 
252 355 251 37 
114 299 252 115 
274 251 252 355 
252 299 274 355 
274 299 252 114 
274 252 251 114 
359 302 106 37 
302 357 37 35 
302 357 35 119 
359 302 37 35 
119 303 358 301 
132 303 358 39 
132 303 39 114 
358 132 301 303 
303 132 301 38 
38 303 132 114 
355 357 37 302 
357 302 102 119 
355 302 37 106 
355 302 106 102 
355 302 102 357 
119 358 303 357 
358 251 357 37 
37 358 251 39 
303 251 357 358 
39 303 251 114 
358 303 251 39 
359 278 37 106 
359 278 35 37 
359 278 106 118 
359 278 118 35 
300 356 101 103 
356 279 113 101 
356 279 118 113 
300 356 113 101 
355 252 268 37 
269 252 299 115 
102 268 269 113 
355 299 268 252 
269 268 299 252 
355 268 299 102 
268 269 299 102 
359 270 273 117 
270 273 117 116 
359 273 106 117 
270 359 35 117 
106 302 359 117 
302 35 117 119 
359 302 35 117 
102 355 144 106 
144 103 106 37 
144 355 37 106 
173 356 103 101 
356 279 101 105 
356 279 105 118 
173 356 101 105 
116 280 270 273 
359 280 270 35 
359 280 35 118 
270 359 273 280 
280 359 273 106 
106 280 359 118 
116 280 273 272 
257 280 273 106 
257 280 106 118 
273 257 272 280 
280 257 272 105 
105 280 257 118 
